<svg xmlns="http://www.w3.org/2000/svg" width="21.084" height="15.813" viewBox="0 0 21.084 15.813">
  <path id="envelope" d="M20.685,69.222a.248.248,0,0,1,.4.194v8.421a1.977,1.977,0,0,1-1.977,1.977H1.977A1.977,1.977,0,0,1,0,77.836V69.419a.246.246,0,0,1,.4-.194c.922.717,2.145,1.627,6.346,4.678.869.634,2.335,1.968,3.8,1.96,1.47.012,2.965-1.351,3.8-1.96C18.543,70.852,19.762,69.938,20.685,69.222Zm-10.143,5.32c.955.016,2.331-1.2,3.023-1.7,5.465-3.966,5.88-4.312,7.141-5.3a.985.985,0,0,0,.379-.778v-.782A1.977,1.977,0,0,0,19.107,64H1.977A1.977,1.977,0,0,0,0,65.977v.782a.991.991,0,0,0,.379.778c1.26.984,1.676,1.334,7.141,5.3C8.211,73.34,9.587,74.558,10.542,74.542Z" transform="translate(0 -64)" fill="#fff" opacity="0.4"/>
</svg>
