<svg xmlns="http://www.w3.org/2000/svg" xmlns:xlink="http://www.w3.org/1999/xlink" width="112" height="112" viewBox="0 0 112 112">
  <defs>
    <filter id="Ellipse_180" x="0" y="0" width="112" height="112" filterUnits="userSpaceOnUse">
      <feOffset dy="1" input="SourceAlpha"/>
      <feGaussianBlur stdDeviation="11" result="blur"/>
      <feFlood flood-opacity="0.078"/>
      <feComposite operator="in" in2="blur"/>
      <feComposite in="SourceGraphic"/>
    </filter>
  </defs>
  <g id="Group_218" data-name="Group 218" transform="translate(33.344 32)">
    <g transform="matrix(1, 0, 0, 1, -33.34, -32)" filter="url(#Ellipse_180)">
      <circle id="Ellipse_180-2" data-name="Ellipse 180" cx="23" cy="23" r="23" transform="translate(33 32)" fill="#464646"/>
    </g>
    <g id="instagram_1_" data-name="instagram (1)" transform="translate(13.408 14.682)">
      <g id="Group_206" data-name="Group 206">
        <g id="Group_205" data-name="Group 205">
          <path id="Path_735" data-name="Path 735" d="M11.637,0H5.29A5.29,5.29,0,0,0,0,5.29v6.347a5.29,5.29,0,0,0,5.29,5.29h6.347a5.29,5.29,0,0,0,5.29-5.29V5.29A5.29,5.29,0,0,0,11.637,0Zm3.7,11.637a3.707,3.707,0,0,1-3.7,3.7H5.29a3.707,3.707,0,0,1-3.7-3.7V5.29a3.707,3.707,0,0,1,3.7-3.7h6.347a3.707,3.707,0,0,1,3.7,3.7Z" fill="#f4a627"/>
        </g>
      </g>
      <g id="Group_208" data-name="Group 208" transform="translate(4.232 4.232)">
        <g id="Group_207" data-name="Group 207">
          <path id="Path_736" data-name="Path 736" d="M132.232,128a4.232,4.232,0,1,0,4.232,4.232A4.232,4.232,0,0,0,132.232,128Zm0,6.876a2.645,2.645,0,1,1,2.645-2.645A2.648,2.648,0,0,1,132.232,134.876Z" transform="translate(-128 -128)" fill="#f4a627"/>
        </g>
      </g>
      <g id="Group_210" data-name="Group 210" transform="translate(12.448 3.35)">
        <g id="Group_209" data-name="Group 209">
          <circle id="Ellipse_184" data-name="Ellipse 184" cx="0.564" cy="0.564" r="0.564" fill="#f4a627"/>
        </g>
      </g>
    </g>
  </g>
</svg>
