<svg id="logo_ai_2_" data-name="logo_ai (2)" xmlns="http://www.w3.org/2000/svg" xmlns:xlink="http://www.w3.org/1999/xlink" width="120.647" height="50.567" viewBox="0 0 120.647 50.567">
  <defs>
    <linearGradient id="linear-gradient" y1="0.5" x2="1" y2="0.5" gradientUnits="objectBoundingBox">
      <stop offset="0" stop-color="#f4a627"/>
      <stop offset="0.598" stop-color="#fc6"/>
      <stop offset="1" stop-color="#f5d13e"/>
    </linearGradient>
  </defs>
  <path id="Path_740" data-name="Path 740" d="M155.993,340.456H108.516A6.512,6.512,0,0,1,102,333.939V296.516A6.512,6.512,0,0,1,108.516,290h47.477Z" transform="translate(-102 -290)" fill="url(#linear-gradient)"/>
  <g id="Group_228" data-name="Group 228" transform="translate(6.274 0.037)">
    <path id="Path_741" data-name="Path 741" d="M577.082,315.187v-2.2c0-1.62-.54-2.29-1.787-2.29H573.6v6.87h1.378C576.281,317.552,577.082,316.974,577.082,315.187Z" transform="translate(-492.07 -306.883)" fill="none"/>
    <path id="Path_742" data-name="Path 742" d="M503,326h3.389l-1.694-11.3Z" transform="translate(-434.615 -310.139)" fill="none"/>
    <path id="Path_743" data-name="Path 743" d="M505.025,460.8c-1.117,0-1.825.54-1.825,2.067v11.339c0,1.527.707,2.067,1.825,2.067s1.825-.54,1.825-2.067V462.867C506.831,461.34,506.142,460.8,505.025,460.8Z" transform="translate(-434.778 -429.037)" fill="none"/>
    <path id="Path_744" data-name="Path 744" d="M135.7,360.168h5.511V331.943l7.634,28.225h6.274V321.2h-5.455v23.329L143.389,321.2H135.7Z" transform="translate(-135.7 -315.428)"/>
    <path id="Path_745" data-name="Path 745" d="M270.123,358.662c6.014,0,9.123-3.5,9.123-9.793V328.593c0-6.293-3.109-9.793-9.123-9.793S261,322.3,261,328.593v3.78h5.79V328.2c0-2.83,1.229-3.835,3.165-3.835,1.955,0,3.165,1.005,3.165,3.835v8.3H261v12.363C261,355.162,264.109,358.662,270.123,358.662Zm-3.333-16.589h6.349v7.187c0,2.849-1.229,3.78-3.165,3.78-1.955,0-3.165-.95-3.165-3.78v-7.187Z" transform="translate(-237.671 -313.475)"/>
    <path id="Path_746" data-name="Path 746" d="M424.076,312.542l3.463-22.342H424.3l-2.681,18.227L418.938,290.2H415.4l3.444,22.342Z" transform="translate(-363.324 -290.2)" fill="#525252"/>
    <path id="Path_747" data-name="Path 747" d="M483.575,290.2,480,312.542h3.221l.614-4.059h4.3l.614,4.059h3.537L488.713,290.2Zm.707,15.267,1.694-11.3,1.694,11.3Z" transform="translate(-415.897 -290.2)" fill="#525252"/>
    <path id="Path_748" data-name="Path 748" d="M558.137,303.619h1.21c1.62,0,2.29.763,2.29,2.849v3.519a7.626,7.626,0,0,0,.317,2.737h3.575a6.544,6.544,0,0,1-.391-2.718v-3.444c0-2.327-.54-4.022-2.327-4.748q2.29-1.089,2.29-4.524v-1.75c0-3.444-1.527-5.139-5.195-5.139H554.6v22.342h3.519v-9.123Zm0-10.054h1.694c1.247,0,1.787.67,1.787,2.29v2.2c0,1.787-.8,2.365-2.1,2.365h-1.378Z" transform="translate(-476.608 -290.363)" fill="#525252"/>
    <path id="Path_749" data-name="Path 749" d="M421.414,457.544l-2.532-9.644H415.4l4.208,14.15v7h3.314v-7l4.208-14.15h-3.184Z" transform="translate(-363.324 -418.539)" fill="#525252"/>
    <path id="Path_750" data-name="Path 750" d="M489.725,446.2c-3.444,0-5.325,1.88-5.325,5.288V462.4c0,3.389,1.88,5.288,5.325,5.288s5.325-1.88,5.325-5.288v-10.91C495.05,448.081,493.169,446.2,489.725,446.2Zm1.806,16.4c0,1.527-.708,2.067-1.825,2.067s-1.825-.54-1.825-2.067V451.264c0-1.527.707-2.067,1.825-2.067s1.825.54,1.825,2.067Z" transform="translate(-419.478 -417.155)" fill="#525252"/>
    <path id="Path_751" data-name="Path 751" d="M561.141,447.9h-3.072l-2.569,7.8-2.513-7.8h-3.445l3.482,10.277L549.3,469.05h3.109l2.755-8.36,2.718,8.36h3.5l-3.705-10.873Z" transform="translate(-472.295 -418.539)" fill="#525252"/>
    <rect id="Rectangle_330" data-name="Rectangle 330" width="5.902" height="8.434" transform="translate(99.143 42.077)" fill="#525252"/>
    <path id="Path_752" data-name="Path 752" d="M648.743,290.2H638v13.256h5.958v-3.705a2.314,2.314,0,0,1,1.173-2.439,4.4,4.4,0,0,1,2.923-.559c2.4,0,4.022,1.4,4.022,4.394,0,3.91-1.992,5.1-4.1,6.982-3.389,3.072-4.617,5.381-4.375,10.668v7.317h5.9v-7.652c.112-2.793,1.043-3.631,3.091-5.381,3.444-3.072,6.256-5.939,6.256-12.344C658.853,294.594,655.818,290.2,648.743,290.2Z" transform="translate(-544.48 -290.2)" fill="#525252"/>
  </g>
</svg>
