<svg xmlns="http://www.w3.org/2000/svg" xmlns:xlink="http://www.w3.org/1999/xlink" width="107.219" height="44.94" viewBox="0 0 107.219 44.94">
  <defs>
    <linearGradient id="linear-gradient" y1="0.5" x2="1" y2="0.5" gradientUnits="objectBoundingBox">
      <stop offset="0" stop-color="#f4a627"/>
      <stop offset="0.598" stop-color="#fc6"/>
      <stop offset="1" stop-color="#f5d13e"/>
    </linearGradient>
  </defs>
  <g id="logo_ai_2_" data-name="logo_ai (2)" transform="translate(-102 -290)">
    <path id="Subtraction_1" data-name="Subtraction 1" d="M36.984,290.841H-5.209A5.8,5.8,0,0,1-11,285.049V251.791A5.8,5.8,0,0,1-5.209,246H36.984V290.84ZM15.308,266.5h0v10.986c0,5.694,2.8,8.7,8.108,8.7s8.107-3.009,8.107-8.7V259.468c0-5.694-2.8-8.7-8.107-8.7s-8.108,3.009-8.108,8.7v3.359h5.146v-3.706a3.825,3.825,0,0,1,.761-2.647,2.609,2.609,0,0,1,2.052-.761c1.919,0,2.813,1.083,2.813,3.408v7.38ZM-.525,260.717l6.782,25.077h5.576V251.162H6.986v20.732L1.409,251.162H-5.424v34.631h4.9V260.717Zm23.808,20.477c-1.919,0-2.813-1.067-2.813-3.359v-6.386H26.1v6.386C26.1,280.126,25.2,281.193,23.284,281.193Z" transform="translate(113 44)" fill="url(#linear-gradient)"/>
    <g id="Group_1" data-name="Group 1" transform="translate(107.576 290.033)">
      <path id="Path_525" data-name="Path 525" d="M576.694,314.688v-1.952c0-1.44-.48-2.035-1.588-2.035H573.6v6.106h1.224C575.983,316.789,576.694,316.276,576.694,314.688Z" transform="translate(-501.145 -307.308)" fill="none"/>
      <path id="Path_526" data-name="Path 526" d="M503,324.744h3.011L504.506,314.7Z" transform="translate(-442.226 -310.646)" fill="none"/>
      <path id="Path_527" data-name="Path 527" d="M504.822,460.8c-.993,0-1.622.48-1.622,1.837v10.077c0,1.357.629,1.837,1.622,1.837s1.622-.48,1.622-1.837V462.637C506.427,461.28,505.814,460.8,504.822,460.8Z" transform="translate(-442.393 -432.572)" fill="none"/>
      <path id="Path_530" data-name="Path 530" d="M423.11,310.055l3.078-19.855h-2.879l-2.383,16.2-2.383-16.2H415.4l3.061,19.855Z" transform="translate(-369.12 -290.2)" fill="#fff"/>
      <path id="Path_531" data-name="Path 531" d="M483.177,290.2,480,310.055h2.862l.546-3.607h3.822l.546,3.607h3.144L487.744,290.2Zm.629,13.568,1.506-10.043,1.506,10.043Z" transform="translate(-423.032 -290.2)" fill="#fff"/>
      <path id="Path_532" data-name="Path 532" d="M557.744,302.148h1.076c1.44,0,2.035.678,2.035,2.532v3.127a6.778,6.778,0,0,0,.281,2.432h3.177a5.815,5.815,0,0,1-.347-2.416v-3.061c0-2.068-.48-3.574-2.068-4.219q2.035-.968,2.035-4.021v-1.555c0-3.061-1.357-4.567-4.616-4.567H554.6v19.855h3.127v-8.108Zm0-8.935h1.506c1.109,0,1.588.6,1.588,2.035V297.2c0,1.588-.711,2.1-1.87,2.1h-1.224Z" transform="translate(-485.288 -290.367)" fill="#fff"/>
      <path id="Path_533" data-name="Path 533" d="M420.744,456.471l-2.25-8.571H415.4l3.739,12.575V466.7h2.945v-6.221l3.739-12.575h-2.829Z" transform="translate(-369.12 -421.807)" fill="#fff"/>
      <path id="Path_534" data-name="Path 534" d="M489.132,446.2c-3.061,0-4.732,1.671-4.732,4.7v9.7c0,3.011,1.671,4.7,4.732,4.7s4.732-1.671,4.732-4.7v-9.7C493.864,447.871,492.193,446.2,489.132,446.2Zm1.6,14.577c0,1.357-.629,1.837-1.622,1.837s-1.621-.48-1.621-1.837V450.7c0-1.357.629-1.837,1.621-1.837s1.622.48,1.622,1.837Z" transform="translate(-426.704 -420.388)" fill="#fff"/>
      <path id="Path_535" data-name="Path 535" d="M559.823,447.9h-2.73l-2.283,6.933-2.234-6.933h-3.061l3.094,9.133L549.3,466.7h2.763l2.449-7.429,2.416,7.429h3.111l-3.293-9.663Z" transform="translate(-480.865 -421.807)" fill="#fff"/>
      <rect id="Rectangle_4" data-name="Rectangle 4" width="5.245" height="7.495" transform="translate(88.108 37.394)" fill="#fff"/>
      <path id="Path_536" data-name="Path 536" d="M647.547,290.2H638v11.781h5.295v-3.293a2.056,2.056,0,0,1,1.042-2.168,3.908,3.908,0,0,1,2.6-.5c2.134,0,3.574,1.241,3.574,3.9,0,3.475-1.771,4.534-3.64,6.2-3.011,2.73-4.1,4.782-3.888,9.481v6.5h5.245v-6.8c.1-2.482.927-3.227,2.747-4.782,3.061-2.73,5.56-5.278,5.56-10.97C656.532,294.1,653.835,290.2,647.547,290.2Z" transform="translate(-554.889 -290.2)" fill="#fff"/>
    </g>
  </g>
</svg>
